<?xml version="1.0" encoding="UTF-8" standalone="no"?>
<svg width="33px" height="23px" viewBox="0 0 33 23" version="1.1" xmlns="http://www.w3.org/2000/svg" xmlns:xlink="http://www.w3.org/1999/xlink">
    <!-- Generator: Sketch 40.1 (33804) - http://www.bohemiancoding.com/sketch -->
    <title>noun_846811</title>
    <desc>Created with Sketch.</desc>
    <defs></defs>
    <g id="Page-1" stroke="none" stroke-width="1" fill="none" fill-rule="evenodd">
        <g id="noun_846811">
            <path d="M3.29891125,19.6413786 L20.5397342,19.6413786 C21.0409267,19.6406687 21.4470465,19.2345488 21.4477564,18.7333563 L21.4477564,13.2923117 L23.171001,14.141045 L24.0616232,14.5799117 L24.916801,15.0013784 L30.5821124,17.7937563 L30.6040235,17.8040674 L30.6040235,17.7795785 L30.6040235,4.26106684 L30.6040235,4.23657795 L30.5814679,4.24753351 L24.6467788,7.17266696 L23.171001,7.90024477 L21.4477564,8.74897814 L21.4477564,3.30664458 C21.4470465,2.80545208 21.0409267,2.39933223 20.5397342,2.39862232 L3.29891125,2.39862232 C2.80018074,2.4052151 2.39748176,2.80791408 2.39088899,3.30664458 L2.39088899,18.7333563 C2.39748176,19.2320868 2.80018074,19.6347858 3.29891125,19.6413786 L3.29891125,19.6413786 Z" id="Shape"></path>
            <path d="M3.29891125,22.0322676 L20.5397342,22.0322676 C22.3607893,22.0301369 23.8365147,20.5544114 23.8386454,18.7333563 L23.8386454,17.135134 L23.861201,17.1460896 L29.5258679,19.9378231 C30.3636457,20.3496231 31.2349346,20.3418897 31.9193347,19.9159119 C32.6037347,19.4899341 32.9955569,18.7114452 32.9955569,17.7795785 L32.9955569,4.26106684 C32.9955569,3.32855569 32.6030902,2.55006677 31.9186902,2.12408898 C31.2342902,1.69811118 30.3623568,1.69037785 29.5252234,2.10217787 L23.8386454,4.90486687 L23.8386454,3.30664458 C23.8365147,1.48558951 22.3607893,0.0098640555 20.5397342,0.00773333365 L3.29891125,0.00773333365 C1.47785618,0.0098640555 0.00213072185,1.48558951 0,3.30664458 L0,18.7333563 C0.00213072185,20.5544114 1.47785618,22.0301369 3.29891125,22.0322676 L3.29891125,22.0322676 Z M2.39088899,3.30664458 C2.39748176,2.80791408 2.80018074,2.4052151 3.29891125,2.39862232 L20.5397342,2.39862232 C21.0409267,2.39933223 21.4470465,2.80545208 21.4477564,3.30664458 L21.4477564,8.74768925 L23.171001,7.89895588 L24.6467788,7.17137808 L30.5814679,4.24624462 L30.6040235,4.23528906 L30.6040235,4.25977795 L30.6040235,17.7795785 L30.6040235,17.8040674 L30.5821124,17.7937563 L24.916801,15.0013784 L24.0616232,14.5799117 L23.171001,14.141045 L21.4477564,13.2923117 L21.4477564,18.7333563 C21.4470465,19.2345488 21.0409267,19.6406687 20.5397342,19.6413786 L3.29891125,19.6413786 C2.80018074,19.6347858 2.39748176,19.2320868 2.39088899,18.7333563 L2.39088899,3.30664458 L2.39088899,3.30664458 Z" id="Shape" fill="#FFFFFF"></path>
        </g>
    </g>
</svg>