<?xml version="1.0" encoding="UTF-8" standalone="no"?>
<svg width="49px" height="49px" viewBox="0 0 49 49" version="1.1" xmlns="http://www.w3.org/2000/svg" xmlns:xlink="http://www.w3.org/1999/xlink">
    <!-- Generator: Sketch 40.1 (33804) - http://www.bohemiancoding.com/sketch -->
    <title>Shape</title>
    <desc>Created with Sketch.</desc>
    <defs></defs>
    <g id="Page-1" stroke="none" stroke-width="1" fill="none" fill-rule="evenodd">
        <g id="Homepage" transform="translate(-1086.000000, -5758.000000)" fill="#FFFFFF">
            <path d="M1110.21859,5762.68711 C1121.34704,5762.68711 1130.40075,5771.65911 1130.40075,5782.68711 C1130.40075,5793.71511 1121.34704,5802.68711 1110.21859,5802.68711 C1099.09015,5802.68711 1090.03643,5793.71511 1090.03643,5782.68711 C1090.03643,5771.65911 1099.09015,5762.68711 1110.21859,5762.68711 L1110.21859,5762.68711 Z M1110.21859,5758.68711 C1096.84388,5758.68711 1086,5769.43311 1086,5782.68711 C1086,5795.94111 1096.84388,5806.68711 1110.21859,5806.68711 C1123.59331,5806.68711 1134.43719,5795.94111 1134.43719,5782.68711 C1134.43719,5769.43311 1123.59331,5758.68711 1110.21859,5758.68711 L1110.21859,5758.68711 Z M1106.18216,5778.68711 L1102.14573,5778.68711 L1102.14573,5782.68711 L1106.18216,5782.68711 L1106.18216,5794.68711 L1112.23681,5794.68711 L1112.23681,5782.68711 L1115.90996,5782.68711 L1116.27324,5778.68711 L1112.23681,5778.68711 L1112.23681,5777.02111 C1112.23681,5776.06511 1112.43056,5775.68711 1113.36297,5775.68711 L1116.27324,5775.68711 L1116.27324,5770.68711 L1111.42145,5770.68711 C1107.7927,5770.68711 1106.18216,5772.27111 1106.18216,5775.30311 L1106.18216,5778.68711 L1106.18216,5778.68711 Z" id="Shape"></path>
        </g>
    </g>
</svg>